TestBench/dump2.vcd
$date
	Thu Jul 27 18:37:15 2023
$end
$version
	Icarus Verilog
$end
$timescale
	100ps
$end
$scope module SPI_TB $end
$var wire 1 ! MISO $end
$var wire 1 " MOSI $end
$var wire 1 # SCK $end
$var wire 1 $ SS $end
$var wire 1 % S_SPIF $end
$var wire 1 & SPIF $end
$var parameter 32 ' clockperiod $end
$var reg 8 ( SPCR_in [7:0] $end
$var reg 8 ) SPDR_From_user [7:0] $end
$var reg 8 * SPIBR_in [7:0] $end
$var reg 1 + SS_master $end
$var reg 8 , S_SPCR_in [7:0] $end
$var reg 8 - S_SPDR_From_user [7:0] $end
$var reg 1 . clk $end
$var reg 1 / rst $end
$scope module DUT_master $end
$var wire 1 ! MISO $end
$var wire 1 " MOSI $end
$var wire 1 # SCK $end
$var wire 8 0 SPCR_in [7:0] $end
$var wire 8 1 SPDR_From_user [7:0] $end
$var wire 8 2 SPIBR_in [7:0] $end
$var wire 1 $ SS $end
$var wire 1 + SS_master $end
$var wire 1 . clk $end
$var wire 1 / rst $end
$var wire 1 3 start $end
$var wire 1 4 shifter_en $end
$var wire 1 5 idle $end
$var wire 1 6 counter_enable $end
$var wire 3 7 counter [2:0] $end
$var wire 1 8 control_BaudRate $end
$var wire 1 9 Shift_clk $end
$var wire 1 : Sample_clk $end
$var wire 1 ; S_Shift_clk $end
$var wire 1 < S_Sample_clk $end
$var wire 1 = S_BaudRate $end
$var wire 3 > SPR [2:0] $end
$var wire 1 ? SPISR_in $end
$var wire 1 & SPIF $end
$var wire 1 @ SPE $end
$var wire 1 A SPDR_wr_en $end
$var wire 1 B SPDR_rd_en $end
$var wire 8 C SPDR_out [7:0] $end
$var wire 8 D SPDR_in [7:0] $end
$var wire 1 E SCK_out $end
$var wire 1 F SCK_in $end
$var wire 1 G Reg_write_en $end
$var wire 1 H M_Shift_clk $end
$var wire 1 I M_Sample_clk $end
$var wire 1 J M_BaudRate $end
$var wire 1 K MSTR $end
$var wire 1 L LSBFE $end
$var wire 1 M Data_out $end
$var wire 1 N Data_in $end
$var wire 1 O CPOL $end
$var wire 1 P CPHA $end
$var wire 1 Q BaudRate $end
$var wire 1 R BRG_clr $end
$var parameter 32 S PrescalarWidth $end
$scope module u_BRG $end
$var wire 1 . clk $end
$var wire 1 / rst $end
$var wire 8 T counterNext [7:0] $end
$var wire 1 R clr $end
$var wire 3 U SPR [2:0] $end
$var wire 1 Q BaudRate $end
$var parameter 32 V PrescalarWidth $end
$var reg 8 W counter [7:0] $end
$upscope $end
$scope module u_Bit_counter $end
$var wire 1 / rst $end
$var wire 1 6 counter_enable $end
$var wire 1 8 BaudRate $end
$var reg 3 X counter [2:0] $end
$upscope $end
$scope module u_Master_Slave_controller $end
$var wire 1 R BRG_clr $end
$var wire 1 $ SS $end
$var wire 1 . clk $end
$var wire 3 Y counter [2:0] $end
$var wire 1 / rst $end
$var wire 1 8 control_BaudRate $end
$var wire 1 @ SPE $end
$var wire 1 K MSTR $end
$var parameter 32 Z Idle $end
$var parameter 32 [ Run $end
$var parameter 32 \ Start $end
$var parameter 32 ] Update $end
$var reg 1 G Reg_write_en $end
$var reg 1 B SPDR_rd_en $end
$var reg 1 A SPDR_wr_en $end
$var reg 1 ? SPIF $end
$var reg 1 4 Shifter_en $end
$var reg 1 6 counter_enable $end
$var reg 2 ^ current_state [1:0] $end
$var reg 1 5 idle $end
$var reg 2 _ next_state [1:0] $end
$var reg 1 3 start $end
$upscope $end
$scope module u_Master_slave_select $end
$var wire 1 Q BaudRate $end
$var wire 1 5 idle $end
$var wire 1 3 start $end
$var wire 1 ; S_Shift_clk $end
$var wire 1 < S_Sample_clk $end
$var wire 1 = S_BaudRate $end
$var wire 1 H M_Shift_clk $end
$var wire 1 I M_Sample_clk $end
$var wire 1 K MSTR $end
$var reg 1 J M_BaudRate $end
$var reg 1 : Sample_clk $end
$var reg 1 9 Shift_clk $end
$var reg 1 8 control_BaudRate $end
$upscope $end
$scope module u_Port_control_logic $end
$var wire 1 ! MISO $end
$var wire 1 " MOSI $end
$var wire 1 # SCK $end
$var wire 1 $ SS $end
$var wire 1 + SS_master $end
$var wire 1 E SCK_out $end
$var wire 1 F SCK_in $end
$var wire 1 K MSTR $end
$var wire 1 M Data_out $end
$var wire 1 N Data_in $end
$upscope $end
$scope module u_SCK_control_master $end
$var wire 1 J M_BaudRate $end
$var wire 1 5 idle $end
$var wire 1 O CPOL $end
$var wire 1 P CPHA $end
$var reg 1 E SCK_out $end
$var reg 1 I Sample_clk $end
$var reg 1 H Shift_clk $end
$upscope $end
$scope module u_SCK_control_slave $end
$var wire 1 F SCK_in $end
$var wire 1 < Sample_clk $end
$var wire 1 ; Shift_clk $end
$var wire 1 5 idle $end
$var wire 1 O CPOL $end
$var wire 1 P CPHA $end
$var reg 1 = S_BaudRate $end
$upscope $end
$scope module u_SPCR $end
$var wire 8 ` SPCR_in [7:0] $end
$var wire 1 . clk $end
$var wire 1 / rst $end
$var reg 1 P CPHA $end
$var reg 1 O CPOL $end
$var reg 1 L LSBFE $end
$var reg 1 K MSTR $end
$var reg 1 @ SPE $end
$upscope $end
$scope module u_SPDR $end
$var wire 8 a SPDR_From_user [7:0] $end
$var wire 8 b SPDR_out [7:0] $end
$var wire 1 B SPDR_rd_en $end
$var wire 1 . clk $end
$var wire 1 A en $end
$var wire 1 / rst $end
$var wire 8 c SPDR_in [7:0] $end
$var reg 8 d SPDR [7:0] $end
$upscope $end
$scope module u_SPIBR $end
$var wire 8 e SPIBR_in [7:0] $end
$var wire 1 . clk $end
$var wire 1 / rst $end
$var wire 3 f SPR [2:0] $end
$var reg 1 g SPR0 $end
$var reg 1 h SPR1 $end
$var reg 1 i SPR2 $end
$upscope $end
$scope module u_SPISR $end
$var wire 1 ? SPISR_in $end
$var wire 1 . clk $end
$var wire 1 G en $end
$var wire 1 / rst $end
$var reg 1 & SPIF $end
$upscope $end
$scope module u_Shifter $end
$var wire 1 N Data_in $end
$var wire 8 j SPDR_in [7:0] $end
$var wire 1 B SPDR_rd_en $end
$var wire 1 A SPDR_wr_en $end
$var wire 1 : Sample_clk $end
$var wire 1 9 Shift_clk $end
$var wire 1 / rst $end
$var wire 1 4 shifter_en $end
$var parameter 32 k DWIDTH $end
$var reg 1 M Data_out $end
$var reg 8 l SPDR_out [7:0] $end
$var reg 8 m shifter_data [7:0] $end
$var reg 8 n shifter_data_reg [7:0] $end
$upscope $end
$upscope $end
$scope module DUT_slave $end
$var wire 1 ! MISO $end
$var wire 1 " MOSI $end
$var wire 1 # SCK $end
$var wire 8 o SPCR_in [7:0] $end
$var wire 8 p SPDR_From_user [7:0] $end
$var wire 8 q SPIBR_in [7:0] $end
$var wire 1 $ SS $end
$var wire 1 r SS_master $end
$var wire 1 . clk $end
$var wire 1 / rst $end
$var wire 1 s start $end
$var wire 1 t shifter_en $end
$var wire 1 u idle $end
$var wire 1 v counter_enable $end
$var wire 3 w counter [2:0] $end
$var wire 1 x control_BaudRate $end
$var wire 1 y Shift_clk $end
$var wire 1 z Sample_clk $end
$var wire 1 { S_Shift_clk $end
$var wire 1 | S_Sample_clk $end
$var wire 1 } S_BaudRate $end
$var wire 3 ~ SPR [2:0] $end
$var wire 1 !" SPISR_in $end
$var wire 1 % SPIF $end
$var wire 1 "" SPE $end
$var wire 1 #" SPDR_wr_en $end
$var wire 1 $" SPDR_rd_en $end
$var wire 8 %" SPDR_out [7:0] $end
$var wire 8 &" SPDR_in [7:0] $end
$var wire 1 '" SCK_out $end
$var wire 1 (" SCK_in $end
$var wire 1 )" Reg_write_en $end
$var wire 1 *" M_Shift_clk $end
$var wire 1 +" M_Sample_clk $end
$var wire 1 ," M_BaudRate $end
$var wire 1 -" MSTR $end
$var wire 1 ." LSBFE $end
$var wire 1 /" Data_out $end
$var wire 1 0" Data_in $end
$var wire 1 1" CPOL $end
$var wire 1 2" CPHA $end
$var wire 1 3" BaudRate $end
$var wire 1 4" BRG_clr $end
$var parameter 32 5" PrescalarWidth $end
$scope module u_BRG $end
$var wire 1 . clk $end
$var wire 1 / rst $end
$var wire 8 6" counterNext [7:0] $end
$var wire 1 4" clr $end
$var wire 3 7" SPR [2:0] $end
$var wire 1 3" BaudRate $end
$var parameter 32 8" PrescalarWidth $end
$var reg 8 9" counter [7:0] $end
$upscope $end
$scope module u_Bit_counter $end
$var wire 1 / rst $end
$var wire 1 v counter_enable $end
$var wire 1 x BaudRate $end
$var reg 3 :" counter [2:0] $end
$upscope $end
$scope module u_Master_Slave_controller $end
$var wire 1 4" BRG_clr $end
$var wire 1 $ SS $end
$var wire 1 . clk $end
$var wire 3 ;" counter [2:0] $end
$var wire 1 / rst $end
$var wire 1 x control_BaudRate $end
$var wire 1 "" SPE $end
$var wire 1 -" MSTR $end
$var parameter 32 <" Idle $end
$var parameter 32 =" Run $end
$var parameter 32 >" Start $end
$var parameter 32 ?" Update $end
$var reg 1 )" Reg_write_en $end
$var reg 1 $" SPDR_rd_en $end
$var reg 1 #" SPDR_wr_en $end
$var reg 1 !" SPIF $end
$var reg 1 t Shifter_en $end
$var reg 1 v counter_enable $end
$var reg 2 @" current_state [1:0] $end
$var reg 1 u idle $end
$var reg 2 A" next_state [1:0] $end
$var reg 1 s start $end
$upscope $end
$scope module u_Master_slave_select $end
$var wire 1 3" BaudRate $end
$var wire 1 u idle $end
$var wire 1 s start $end
$var wire 1 { S_Shift_clk $end
$var wire 1 | S_Sample_clk $end
$var wire 1 } S_BaudRate $end
$var wire 1 *" M_Shift_clk $end
$var wire 1 +" M_Sample_clk $end
$var wire 1 -" MSTR $end
$var reg 1 ," M_BaudRate $end
$var reg 1 z Sample_clk $end
$var reg 1 y Shift_clk $end
$var reg 1 x control_BaudRate $end
$upscope $end
$scope module u_Port_control_logic $end
$var wire 1 ! MISO $end
$var wire 1 " MOSI $end
$var wire 1 # SCK $end
$var wire 1 $ SS $end
$var wire 1 r SS_master $end
$var wire 1 '" SCK_out $end
$var wire 1 (" SCK_in $end
$var wire 1 -" MSTR $end
$var wire 1 /" Data_out $end
$var wire 1 0" Data_in $end
$upscope $end
$scope module u_SCK_control_master $end
$var wire 1 ," M_BaudRate $end
$var wire 1 u idle $end
$var wire 1 1" CPOL $end
$var wire 1 2" CPHA $end
$var reg 1 '" SCK_out $end
$var reg 1 +" Sample_clk $end
$var reg 1 *" Shift_clk $end
$upscope $end
$scope module u_SCK_control_slave $end
$var wire 1 (" SCK_in $end
$var wire 1 | Sample_clk $end
$var wire 1 { Shift_clk $end
$var wire 1 u idle $end
$var wire 1 1" CPOL $end
$var wire 1 2" CPHA $end
$var reg 1 } S_BaudRate $end
$upscope $end
$scope module u_SPCR $end
$var wire 8 B" SPCR_in [7:0] $end
$var wire 1 . clk $end
$var wire 1 / rst $end
$var reg 1 2" CPHA $end
$var reg 1 1" CPOL $end
$var reg 1 ." LSBFE $end
$var reg 1 -" MSTR $end
$var reg 1 "" SPE $end
$upscope $end
$scope module u_SPDR $end
$var wire 8 C" SPDR_From_user [7:0] $end
$var wire 8 D" SPDR_out [7:0] $end
$var wire 1 $" SPDR_rd_en $end
$var wire 1 . clk $end
$var wire 1 #" en $end
$var wire 1 / rst $end
$var wire 8 E" SPDR_in [7:0] $end
$var reg 8 F" SPDR [7:0] $end
$upscope $end
$scope module u_SPIBR $end
$var wire 8 G" SPIBR_in [7:0] $end
$var wire 1 . clk $end
$var wire 1 / rst $end
$var wire 3 H" SPR [2:0] $end
$var reg 1 I" SPR0 $end
$var reg 1 J" SPR1 $end
$var reg 1 K" SPR2 $end
$upscope $end
$scope module u_SPISR $end
$var wire 1 !" SPISR_in $end
$var wire 1 . clk $end
$var wire 1 )" en $end
$var wire 1 / rst $end
$var reg 1 % SPIF $end
$upscope $end
$scope module u_Shifter $end
$var wire 1 0" Data_in $end
$var wire 8 L" SPDR_in [7:0] $end
$var wire 1 $" SPDR_rd_en $end
$var wire 1 #" SPDR_wr_en $end
$var wire 1 z Sample_clk $end
$var wire 1 y Shift_clk $end
$var wire 1 / rst $end
$var wire 1 t shifter_en $end
$var parameter 32 M" DWIDTH $end
$var reg 1 /" Data_out $end
$var reg 8 N" SPDR_out [7:0] $end
$var reg 8 O" shifter_data [7:0] $end
$var reg 8 P" shifter_data_reg [7:0] $end
$upscope $end
$upscope $end
$scope task expect_master $end
$var reg 8 Q" exp_SPDR [7:0] $end
$upscope $end
$scope task expect_slave $end
$var reg 8 R" exp_SPDR [7:0] $end
$upscope $end
$upscope $end
$enddefinitions $end
$comment Show the parameter values. $end
$dumpall
b1000 M"
b11 ?"
b0 >"
b10 ="
b1 <"
b11 8"
b11 5"
b1000 k
b11 ]
b0 \
b10 [
b1 Z
b11 V
b11 S
b1010 '
$end
#0
$dumpvars
bx R"
bx Q"
bx P"
bx O"
bx N"
bx L"
xK"
xJ"
xI"
bx H"
b0 G"
bx F"
bx E"
bx D"
bx C"
bx B"
bx A"
bx @"
bx ;"
bx :"
bx 9"
bx 7"
bx 6"
x4"
x3"
x2"
x1"
x0"
x/"
x."
x-"
x,"
x+"
x*"
x)"
x("
x'"
bx &"
bx %"
x$"
x#"
x""
x!"
bx ~
x}
x|
x{
xz
xy
xx
bx w
xv
xu
xt
xs
1r
b0 q
bx p
bx o
bx n
bx m
bx l
bx j
xi
xh
xg
bx f
bx e
bx d
bx c
bx b
bx a
bx `
bx _
bx ^
bx Y
bx X
bx W
bx U
bx T
xR
xQ
xP
xO
xN
xM
xL
xK
xJ
xI
xH
xG
xF
xE
bx D
bx C
xB
xA
x@
x?
bx >
x=
x<
x;
x:
x9
x8
bx 7
x6
x5
x4
x3
bx 2
bx 1
bx 0
1/
0.
bx -
bx ,
x+
bx *
bx )
bx (
x&
x%
x$
x#
x"
x!
$end
#50
zx
1I
1+"
z}
z8
z("
z0"
1R
14"
13
06
0G
0?
04
0A
0B
05
0!
1s
0v
0)"
0!"
0t
0#"
0$"
0u
0E
0H
z=
zF
z#
z$
zN
z"
0J
b0 C
b0 c
b0 l
0'"
0*"
0,"
b0 %"
b0 E"
b0 N"
b0 7
b0 X
b0 Y
b0 ^
0M
b0 w
b0 :"
b0 ;"
b0 @"
0/"
b1 T
0Q
b0 W
0L
0P
0O
0K
0@
0&
0i
1h
b10 >
b10 U
b10 f
0g
b0 D
b0 b
b0 j
b0 d
b1 6"
03"
b0 9"
0."
02"
01"
0-"
0""
0%
0K"
1J"
b10 ~
b10 7"
b10 H"
0I"
b0 &"
b0 D"
b0 L"
b0 F"
0/
1.
#100
b10 *
b10 2
b10 e
0+
b10101010 )
b10101010 1
b10101010 a
b1010101 -
b1010101 p
b1010101 C"
1/
0.
#150
xR
x4"
x!
x("
x0"
xF
x#
x$
xN
x"
b0 ~
b0 7"
b0 H"
0J"
x."
x2"
x1"
x-"
x""
xL
xP
xO
xK
x@
1.
#200
0.
bx1x000xx ,
bx1x000xx o
bx1x000xx B"
bx1x100xx (
bx1x100xx 0
bx1x100xx `
#250
0+"
1)"
1$"
1u
0s
b1 @"
0;
0<
b0 m
1E
0I
1J
b0 O"
1G
1B
15
03
bx0 P"
b1 ^
0z
0|
0y
0{
0N
0R
14"
1("
00"
0!
1x
zF
1#
0$
0"
0:
09
18
b10 _
1}
b10 A"
b10 T
b1 W
0P
0O
1K
1@
b10 6"
13"
b1 9"
02"
01"
0-"
1""
1.
#300
0.
#350
b1010101 O"
b10101010 m
b1010101 &"
b1010101 D"
b1010101 L"
b1010101 F"
b1 6"
03"
b0 9"
b10101010 D
b10101010 b
b10101010 j
b10101010 d
b11 T
b10 W
1.
#400
0.
#450
b100 T
b11 W
1.
#500
0.
#550
0x
0}
0("
0#
0E
08
0J
b101 T
1Q
b100 W
1.
#600
0.
#650
b110 T
b101 W
1.
#700
0.
#750
b111 T
b110 W
1.
#800
0.
#850
b1000 T
b111 W
1.
#900
0.
#950
10"
1"
1M
1y
1{
19
x;
x<
1+"
1H
1v
1t
0)"
0$"
0u
16
14
0G
0B
05
b10 @"
b10 ^
1x
1}
1("
1#
1E
18
1J
b1001 T
0Q
b1000 W
1.
#1000
0.
#1050
b1010 T
b1001 W
1.
#1100
0.
#1150
b1011 T
b1010 W
1.
#1200
0.
#1250
b1100 T
b1011 W
1.
#1300
0.
#1350
b10101011 P"
b1010100 n
b10101011 O"
1z
1|
0y
0{
0x
0}
0("
b1010100 m
0#
1:
09
0E
0H
1I
08
0J
b1101 T
1Q
b1100 W
1.
#1400
0.
#1450
b1110 T
b1101 W
1.
#1500
0.
#1550
b1111 T
b1110 W
1.
#1600
0.
#1650
b10000 T
b1111 W
1.
#1700
0.
#1750
1N
00"
1!
0"
1/"
b1 w
b1 :"
b1 ;"
0M
b1 7
b1 X
b1 Y
0z
0|
1y
1{
1x
1}
1("
1#
0:
19
1E
1H
0I
18
1J
b10001 T
0Q
b10000 W
1.
#1800
0.
#1850
b10010 T
b10001 W
1.
#1900
0.
#1950
b10011 T
b10010 W
1.
#2000
0.
#2050
b10100 T
b10011 W
1.
#2100
0.
#2150
b1010110 O"
b10101001 m
b1010110 P"
b10101001 n
1z
1|
0y
0{
0x
0}
0("
0#
1:
09
0E
0H
1I
08
0J
b10101 T
1Q
b10100 W
1.
#2200
0.
#2250
b10110 T
b10101 W
1.
#2300
0.
#2350
b10111 T
b10110 W
1.
#2400
0.
#2450
b11000 T
b10111 W
1.
#2500
0.
#2550
0N
10"
0!
1"
0/"
b10 w
b10 :"
b10 ;"
1M
b10 7
b10 X
b10 Y
0z
0|
1y
1{
1x
1}
1("
1#
0:
19
1E
1H
0I
18
1J
b11001 T
0Q
b11000 W
1.
#2600
0.
#2650
b11010 T
b11001 W
1.
#2700
0.
#2750
b11011 T
b11010 W
1.
#2800
0.
#2850
b11100 T
b11011 W
1.
#2900
0.
#2950
b10101101 O"
b1010010 m
b10101101 P"
b1010010 n
1z
1|
0y
0{
0x
0}
0("
0#
1:
09
0E
0H
1I
08
0J
b11101 T
1Q
b11100 W
1.
#3000
0.
#3050
b11110 T
b11101 W
1.
#3100
0.
#3150
b11111 T
b11110 W
1.
#3200
0.
#3250
b100000 T
b11111 W
1.
#3300
0.
#3350
1N
00"
1!
0"
1/"
b11 w
b11 :"
b11 ;"
0M
b11 7
b11 X
b11 Y
0z
0|
1y
1{
1x
1}
1("
1#
0:
19
1E
1H
0I
18
1J
b100001 T
0Q
b100000 W
1.
#3400
0.
#3450
b100010 T
b100001 W
1.
#3500
0.
#3550
b100011 T
b100010 W
1.
#3600
0.
#3650
b100100 T
b100011 W
1.
#3700
0.
#3750
b1011010 O"
b10100101 m
b1011010 P"
b10100101 n
1z
1|
0y
0{
0x
0}
0("
0#
1:
09
0E
0H
1I
08
0J
b100101 T
1Q
b100100 W
1.
#3800
0.
#3850
b100110 T
b100101 W
1.
#3900
0.
#3950
b100111 T
b100110 W
1.
#4000
0.
#4050
b101000 T
b100111 W
1.
#4100
0.
#4150
0N
10"
0!
1"
0/"
b100 w
b100 :"
b100 ;"
1M
b100 7
b100 X
b100 Y
0z
0|
1y
1{
1x
1}
1("
1#
0:
19
1E
1H
0I
18
1J
b101001 T
0Q
b101000 W
1.
#4200
0.
#4250
b101010 T
b101001 W
1.
#4300
0.
#4350
b101011 T
b101010 W
1.
#4400
0.
#4450
b101100 T
b101011 W
1.
#4500
0.
#4550
b10110101 O"
b1001010 m
b10110101 P"
b1001010 n
1z
1|
0y
0{
0x
0}
0("
0#
1:
09
0E
0H
1I
08
0J
b101101 T
1Q
b101100 W
1.
#4600
0.
#4650
b101110 T
b101101 W
1.
#4700
0.
#4750
b101111 T
b101110 W
1.
#4800
0.
#4850
b110000 T
b101111 W
1.
#4900
0.
#4950
1N
00"
1!
0"
1/"
b101 w
b101 :"
b101 ;"
0M
b101 7
b101 X
b101 Y
0z
0|
1y
1{
1x
1}
1("
1#
0:
19
1E
1H
0I
18
1J
b110001 T
0Q
b110000 W
1.
#5000
0.
#5050
b110010 T
b110001 W
1.
#5100
0.
#5150
b110011 T
b110010 W
1.
#5200
0.
#5250
b110100 T
b110011 W
1.
#5300
0.
#5350
b1101010 O"
b10010101 m
b1101010 P"
b10010101 n
1z
1|
0y
0{
0x
0}
0("
0#
1:
09
0E
0H
1I
08
0J
b110101 T
1Q
b110100 W
1.
#5400
0.
#5450
b110110 T
b110101 W
1.
#5500
0.
#5550
b110111 T
b110110 W
1.
#5600
0.
#5650
b111000 T
b110111 W
1.
#5700
0.
#5750
0N
10"
0!
1"
0/"
b110 w
b110 :"
b110 ;"
1M
b110 7
b110 X
b110 Y
0z
0|
1y
1{
1x
1}
1("
1#
0:
19
1E
1H
0I
18
1J
b111001 T
0Q
b111000 W
1.
#5800
0.
#5850
b111010 T
b111001 W
1.
#5900
0.
#5950
b111011 T
b111010 W
1.
#6000
0.
#6050
b111100 T
b111011 W
1.
#6100
0.
#6150
b11010101 O"
b101010 m
b11010101 P"
b101010 n
1z
1|
0y
0{
0x
0}
0("
0#
1:
09
0E
0H
1I
08
0J
b111101 T
1Q
b111100 W
1.
#6200
0.
#6250
b111110 T
b111101 W
1.
#6300
0.
#6350
b111111 T
b111110 W
1.
#6400
0.
#6450
b1000000 T
b111111 W
1.
#6500
0.
#6550
1N
00"
1!
b11 A"
0"
b11 _
1/"
b111 w
b111 :"
b111 ;"
0M
b111 7
b111 X
b111 Y
0z
0|
1y
1{
1x
1}
1("
1#
0:
19
1E
1H
0I
18
1J
b1000001 T
0Q
b1000000 W
1.
#6600
0.
#6650
b1000010 T
b1000001 W
1.
#6700
0.
#6750
b1000011 T
b1000010 W
1.
#6800
0.
#6850
b1000100 T
b1000011 W
1.
#6900
0.
#6950
b10101010 O"
b1010101 m
b10101010 P"
b1010101 n
1z
1|
0y
0{
0x
0}
0("
0#
1:
09
0E
0H
1I
08
0J
b1000101 T
1Q
b1000100 W
1.
#7000
0.
#7050
b1000110 T
b1000101 W
1.
#7100
0.
#7150
b1000111 T
b1000110 W
1.
#7200
0.
#7250
b1001000 T
b1000111 W
1.
#7300
0.
#7350
0;
0<
b10101010 %"
b10101010 E"
b10101010 N"
0+"
b1010101 C
b1010101 c
b1010101 l
1)"
1!"
1#"
1u
0v
0t
b1 A"
1G
1?
1A
15
06
04
b1 _
b0 w
b0 :"
b0 ;"
b11 @"
b0 7
b0 X
b0 Y
b11 ^
0z
0|
0y
0{
1x
1}
1("
1#
0:
09
1E
0H
0I
18
1J
b1001001 T
0Q
b1001000 W
1.
#7400
0.
#7450
b1010101 C
b1010101 c
b1010101 l
b10101010 %"
b10101010 E"
b10101010 N"
b1001010 T
b1001001 W
1&
b1010101 D
b1010101 b
b1010101 j
b1010101 d
1%
b10101010 &"
b10101010 D"
b10101010 L"
b10101010 F"
1.
#7500
0.
b11011101 -
b11011101 p
b11011101 C"
b10111011 )
b10111011 1
b10111011 a
b10101010 R"
b1010101 Q"
#7550
b1001011 T
b1001010 W
1.
#7600
0.
#7650
b1001100 T
b1001011 W
1.
#7700
0.
#7750
0x
0}
0("
0#
0E
08
0J
b1001101 T
1Q
b1001100 W
1.
#7800
0.
#7850
b1001110 T
b1001101 W
1.
#7900
0.
#7950
b1001111 T
b1001110 W
1.
#8000
0.
#8050
b1010000 T
b1001111 W
1.
#8100
0.
#8150
b0 %"
b0 E"
b0 N"
b0 C
b0 c
b0 l
1$"
1)"
0!"
0#"
1u
b10 A"
1B
1G
0?
0A
15
b10 _
b1 @"
b1 ^
1x
1}
1("
1#
1E
18
1J
b1010001 T
0Q
b1010000 W
1.
#8200
0.
#8250
b10111011 m
b11011101 O"
b1010010 T
b1010001 W
0&
b10111011 D
b10111011 b
b10111011 j
b10111011 d
0%
b11011101 &"
b11011101 D"
b11011101 L"
b11011101 F"
1.
#8300
0.
#8350
b1010011 T
b1010010 W
1.
#8400
0.
#8450
b1010100 T
b1010011 W
1.
#8500
0.
#8550
0x
0}
0("
0#
0E
08
0J
b1010101 T
1Q
b1010100 W
1.
#8600
0.
#8650
b1010110 T
b1010101 W
1.
#8700
0.
#8750
b1010111 T
b1010110 W
1.
#8800
0.
#8850
b1011000 T
b1010111 W
1.
#8900
0.
#8950
10"
1"
1M
1y
1{
19
x;
x<
1+"
1H
1v
1t
0)"
0$"
0u
16
14
0G
0B
05
b10 @"
b10 ^
1x
1}
1("
1#
1E
18
1J
b1011001 T
0Q
b1011000 W
1.
#9000
0.
#9050
b1011010 T
b1011001 W
1.
#9100
0.
#9150
b1011011 T
b1011010 W
1.
#9200
0.
#9250
b1011100 T
b1011011 W
1.
#9300
0.
#9350
b10111011 P"
b1110111 n
b10111011 O"
1z
1|
0y
0{
0x
0}
0("
b1110111 m
0#
1:
09
0E
0H
1I
08
0J
b1011101 T
1Q
b1011100 W
1.
#9400
0.
#9450
b1011110 T
b1011101 W
1.
#9500
0.
#9550
b1011111 T
b1011110 W
1.
#9600
0.
#9650
b1100000 T
b1011111 W
1.
#9700
0.
#9750
00"
0"
b1 w
b1 :"
b1 ;"
0M
b1 7
b1 X
b1 Y
0z
0|
1y
1{
1x
1}
1("
1#
0:
19
1E
1H
0I
18
1J
b1100001 T
0Q
b1100000 W
1.
#9800
0.
#9850
b1100010 T
b1100001 W
1.
#9900
0.
#9950
b1100011 T
b1100010 W
1.
#10000
0.
#10050
b1100100 T
b1100011 W
1.
#10100
0.
#10150
b1110110 O"
b11101111 m
b1110110 P"
b11101111 n
1z
1|
0y
0{
0x
0}
0("
0#
1:
09
0E
0H
1I
08
0J
b1100101 T
1Q
b1100100 W
1.
#10200
0.
#10250
b1100110 T
b1100101 W
1.
#10300
0.
#10350
b1100111 T
b1100110 W
1.
#10400
0.
#10450
b1101000 T
b1100111 W
1.
#10500
0.
#10550
0N
10"
0!
1"
0/"
b10 w
b10 :"
b10 ;"
1M
b10 7
b10 X
b10 Y
0z
0|
1y
1{
1x
1}
1("
1#
0:
19
1E
1H
0I
18
1J
b1101001 T
0Q
b1101000 W
1.
#10600
0.
#10650
b1101010 T
b1101001 W
1.
#10700
0.
#10750
b1101011 T
b1101010 W
1.
#10800
0.
#10850
b1101100 T
b1101011 W
1.
#10900
0.
#10950
b11101101 O"
b11011110 m
b11101101 P"
b11011110 n
1z
1|
0y
0{
0x
0}
0("
0#
1:
09
0E
0H
1I
08
0J
b1101101 T
1Q
b1101100 W
1.
#11000
0.
#11050
b1101110 T
b1101101 W
1.
#11100
0.
#11150
b1101111 T
b1101110 W
1.
#11200
0.
#11250
b1110000 T
b1101111 W
1.
#11300
0.
#11350
1N
1!
1/"
b11 w
b11 :"
b11 ;"
b11 7
b11 X
b11 Y
0z
0|
1y
1{
1x
1}
1("
1#
0:
19
1E
1H
0I
18
1J
b1110001 T
0Q
b1110000 W
1.
#11400
0.
#11450
b1110010 T
b1110001 W
1.
#11500
0.
#11550
b1110011 T
b1110010 W
1.
#11600
0.
#11650
b1110100 T
b1110011 W
1.
#11700
0.
#11750
b11011011 O"
b10111101 m
b11011011 P"
b10111101 n
1z
1|
0y
0{
0x
0}
0("
0#
1:
09
0E
0H
1I
08
0J
b1110101 T
1Q
b1110100 W
1.
#11800
0.
#11850
b1110110 T
b1110101 W
1.
#11900
0.
#11950
b1110111 T
b1110110 W
1.
#12000
0.
#12050
b1111000 T
b1110111 W
1.
#12100
0.
#12150
b100 w
b100 :"
b100 ;"
b100 7
b100 X
b100 Y
0z
0|
1y
1{
1x
1}
1("
1#
0:
19
1E
1H
0I
18
1J
b1111001 T
0Q
b1111000 W
1.
#12200
0.
#12250
b1111010 T
b1111001 W
1.
#12300
0.
#12350
b1111011 T
b1111010 W
1.
#12400
0.
#12450
b1111100 T
b1111011 W
1.
#12500
0.
#12550
b10110111 O"
b1111011 m
b10110111 P"
b1111011 n
1z
1|
0y
0{
0x
0}
0("
0#
1:
09
0E
0H
1I
08
0J
b1111101 T
1Q
b1111100 W
1.
#12600
0.
#12650
b1111110 T
b1111101 W
1.
#12700
0.
#12750
b1111111 T
b1111110 W
1.
#12800
0.
#12850
b10000000 T
b1111111 W
1.
#12900
0.
#12950
00"
0"
b101 w
b101 :"
b101 ;"
0M
b101 7
b101 X
b101 Y
0z
0|
1y
1{
1x
1}
1("
1#
0:
19
1E
1H
0I
18
1J
b10000001 T
0Q
b10000000 W
1.
#13000
0.
#13050
b10000010 T
b10000001 W
1.
#13100
0.
#13150
b10000011 T
b10000010 W
1.
#13200
0.
#13250
b10000100 T
b10000011 W
1.
#13300
0.
#13350
b1101110 O"
b11110111 m
b1101110 P"
b11110111 n
1z
1|
0y
0{
0x
0}
0("
0#
1:
09
0E
0H
1I
08
0J
b10000101 T
1Q
b10000100 W
1.
#13400
0.
#13450
b10000110 T
b10000101 W
1.
#13500
0.
#13550
b10000111 T
b10000110 W
1.
#13600
0.
#13650
b10001000 T
b10000111 W
1.
#13700
0.
#13750
0N
10"
0!
1"
0/"
b110 w
b110 :"
b110 ;"
1M
b110 7
b110 X
b110 Y
0z
0|
1y
1{
1x
1}
1("
1#
0:
19
1E
1H
0I
18
1J
b10001001 T
0Q
b10001000 W
1.
#13800
0.
#13850
b10001010 T
b10001001 W
1.
#13900
0.
#13950
b10001011 T
b10001010 W
1.
#14000
0.
#14050
b10001100 T
b10001011 W
1.
#14100
0.
#14150
b11011101 O"
b11101110 m
b11011101 P"
b11101110 n
1z
1|
0y
0{
0x
0}
0("
0#
1:
09
0E
0H
1I
08
0J
b10001101 T
1Q
b10001100 W
1.
#14200
0.
#14250
b10001110 T
b10001101 W
1.
#14300
0.
#14350
b10001111 T
b10001110 W
1.
#14400
0.
#14450
b10010000 T
b10001111 W
1.
#14500
0.
